…
If the to-be-split variable lives in a data frame, `tidyr::separate()`
will split it into 2 or more variables.

``` r
my_fruit_df <- tibble(fruit)
my_fruit_df %>% 
  separate(fruit, into = c("pre", "post"), sep = " ") %>% 
  print(n = 10)
```

    ## Warning: Expected 2 pieces. Missing pieces filled with `NA` in 69 rows [1, 2, 3,
    ## 4, 6, 7, 8, 10, 11, 12, 14, 15, 16, 18, 19, 20, 21, 22, 23, 24, ...].

    ## # A tibble: 80 x 2
    ##    pre          post  
    ##    <chr>        <chr> 
    ##  1 apple        <NA>  
    ##  2 apricot      <NA>  
    ##  3 avocado      <NA>  
    ##  4 banana       <NA>  
    ##  5 bell         pepper
    ##  6 bilberry     <NA>  
    ##  7 blackberry   <NA>  
    ##  8 blackcurrant <NA>  
    ##  9 blood        orange
    ## 10 blueberry    <NA>  
    ## # … with 70 more rows
…
